F:\VA\tttn-2020\workspace\spring-mvc\src\main\java\com\laptrinhjavaweb\mapper\ProductMapper.java
F:\VA\tttn-2020\workspace\spring-mvc\src\main\java\com\laptrinhjavaweb\model\NewsModel.java
F:\VA\tttn-2020\workspace\spring-mvc\src\main\java\com\laptrinhjavaweb\sort\Sortter.java
F:\VA\tttn-2020\workspace\spring-mvc\src\main\java\com\laptrinhjavaweb\security\CustomSuccessHandler.java
F:\VA\tttn-2020\workspace\spring-mvc\src\main\java\com\laptrinhjavaweb\dto\NewDTO.java
F:\VA\tttn-2020\workspace\spring-mvc\src\main\java\com\laptrinhjavaweb\api\admin\NewAPI.java
F:\VA\tttn-2020\workspace\spring-mvc\src\main\java\com\laptrinhjavaweb\service\IProductService.java
F:\VA\tttn-2020\workspace\spring-mvc\src\main\java\com\laptrinhjavaweb\entity\NewEntity.java
F:\VA\tttn-2020\workspace\spring-mvc\src\main\java\com\laptrinhjavaweb\dao\impl\ProductDAO.java
F:\VA\tttn-2020\workspace\spring-mvc\src\main\java\com\laptrinhjavaweb\repository\UserRepository.java
F:\VA\tttn-2020\workspace\spring-mvc\src\main\java\com\laptrinhjavaweb\dto\AbstractDTO.java
F:\VA\tttn-2020\workspace\spring-mvc\src\main\java\com\laptrinhjavaweb\mapper\UserMapper.java
F:\VA\tttn-2020\workspace\spring-mvc\src\main\java\com\laptrinhjavaweb\model\UserModel.java
F:\VA\tttn-2020\workspace\spring-mvc\src\main\java\com\laptrinhjavaweb\dto\RoleDTO.java
F:\VA\tttn-2020\workspace\spring-mvc\src\main\java\com\laptrinhjavaweb\dao\IProductDAO.java
F:\VA\tttn-2020\workspace\spring-mvc\src\main\java\com\laptrinhjavaweb\entity\UserEntity.java
F:\VA\tttn-2020\workspace\spring-mvc\src\main\java\com\laptrinhjavaweb\service\ICategoryService.java
F:\VA\tttn-2020\workspace\spring-mvc\src\main\java\com\laptrinhjavaweb\controller\admin\NewController.java
F:\VA\tttn-2020\workspace\spring-mvc\src\main\java\com\laptrinhjavaweb\paging\PageRequest.java
F:\VA\tttn-2020\workspace\spring-mvc\src\main\java\com\laptrinhjavaweb\entity\BaseEntity.java
F:\VA\tttn-2020\workspace\spring-mvc\src\main\java\com\laptrinhjavaweb\entity\RoleEntity.java
F:\VA\tttn-2020\workspace\spring-mvc\src\main\java\com\laptrinhjavaweb\constant\SystemConstant.java
F:\VA\tttn-2020\workspace\spring-mvc\src\main\java\com\laptrinhjavaweb\service\impl\CategoryService.java
F:\VA\tttn-2020\workspace\spring-mvc\src\main\java\com\laptrinhjavaweb\service\INewService.java
F:\VA\tttn-2020\workspace\spring-mvc\src\main\java\com\laptrinhjavaweb\dao\GennericDAO.java
F:\VA\tttn-2020\workspace\spring-mvc\src\main\java\com\laptrinhjavaweb\model\RoleModel.java
F:\VA\tttn-2020\workspace\spring-mvc\src\main\java\com\laptrinhjavaweb\model\CategoryModel.java
F:\VA\tttn-2020\workspace\spring-mvc\src\main\java\com\laptrinhjavaweb\repository\NewRepository.java
F:\VA\tttn-2020\workspace\spring-mvc\src\main\java\com\laptrinhjavaweb\config\JPAConfig.java
F:\VA\tttn-2020\workspace\spring-mvc\src\main\java\com\laptrinhjavaweb\model\ProductModel.java
F:\VA\tttn-2020\workspace\spring-mvc\src\main\java\com\laptrinhjavaweb\config\JpaAuditingConfig.java
F:\VA\tttn-2020\workspace\spring-mvc\src\main\java\com\laptrinhjavaweb\mapper\RowMapper.java
F:\VA\tttn-2020\workspace\spring-mvc\src\main\java\com\laptrinhjavaweb\model\CommentModel.java
F:\VA\tttn-2020\workspace\spring-mvc\src\main\java\com\laptrinhjavaweb\model\AbstractModel.java
F:\VA\tttn-2020\workspace\spring-mvc\src\main\java\com\laptrinhjavaweb\entity\ProductEntity.java
F:\VA\tttn-2020\workspace\spring-mvc\src\main\java\com\laptrinhjavaweb\util\SecurityUtils.java
F:\VA\tttn-2020\workspace\spring-mvc\src\main\java\com\laptrinhjavaweb\controller\web\HomeController.java
F:\VA\tttn-2020\workspace\spring-mvc\src\main\java\com\laptrinhjavaweb\dao\ICommentDAO.java
F:\VA\tttn-2020\workspace\spring-mvc\src\main\java\com\laptrinhjavaweb\dao\impl\CommentDAO.java
F:\VA\tttn-2020\workspace\spring-mvc\src\main\java\com\laptrinhjavaweb\api\web\NewAPI.java
F:\VA\tttn-2020\workspace\spring-mvc\src\main\java\com\laptrinhjavaweb\dao\impl\CategoryDAO.java
F:\VA\tttn-2020\workspace\spring-mvc\src\main\java\com\laptrinhjavaweb\dto\UserDTO.java
F:\VA\tttn-2020\workspace\spring-mvc\src\main\java\com\laptrinhjavaweb\mapper\NewMapper.java
F:\VA\tttn-2020\workspace\spring-mvc\src\main\java\com\laptrinhjavaweb\model\ProductModel1.java
F:\VA\tttn-2020\workspace\spring-mvc\src\main\java\com\laptrinhjavaweb\mapper\CommentMapper.java
F:\VA\tttn-2020\workspace\spring-mvc\src\main\java\com\laptrinhjavaweb\dto\MyUser.java
F:\VA\tttn-2020\workspace\spring-mvc\src\main\java\com\laptrinhjavaweb\dao\ICategoryDAO.java
F:\VA\tttn-2020\workspace\spring-mvc\src\main\java\com\laptrinhjavaweb\service\impl\CustomUserDetailsService.java
F:\VA\tttn-2020\workspace\spring-mvc\src\main\java\com\laptrinhjavaweb\entity\CategoryEntity.java
F:\VA\tttn-2020\workspace\spring-mvc\src\main\java\com\laptrinhjavaweb\dao\INewDAO.java
F:\VA\tttn-2020\workspace\spring-mvc\src\main\java\com\laptrinhjavaweb\service\impl\ProductService.java
F:\VA\tttn-2020\workspace\spring-mvc\src\main\java\com\laptrinhjavaweb\paging\Pageble.java
F:\VA\tttn-2020\workspace\spring-mvc\src\main\java\com\laptrinhjavaweb\controller\admin\HomeController.java
F:\VA\tttn-2020\workspace\spring-mvc\src\main\java\com\laptrinhjavaweb\mapper\CategoryMapper.java
F:\VA\tttn-2020\workspace\spring-mvc\src\main\java\com\laptrinhjavaweb\dao\impl\NewDAO.java
F:\VA\tttn-2020\workspace\spring-mvc\src\main\java\com\laptrinhjavaweb\dao\impl\AbstractDAO.java
F:\VA\tttn-2020\workspace\spring-mvc\src\main\java\com\laptrinhjavaweb\service\impl\NewService.java
